…
    The following objects are masked from 'package:stats':

        filter, lag

    The following objects are masked from 'package:base':

        intersect, setdiff, setequal, union

``` r
penguins |>
  filter(species == "Adelie")
```

    # A tibble: 152 × 8
       species island    bill_length_mm bill_depth_mm flipper_length_mm body_mass_g
       <fct>   <fct>              <dbl>         <dbl>             <int>       <int>
     1 Adelie  Torgersen           39.1          18.7               181        3750
     2 Adelie  Torgersen           39.5          17.4               186        3800
     3 Adelie  Torgersen           40.3          18                 195        3250
     4 Adelie  Torgersen           NA            NA                  NA          NA
     5 Adelie  Torgersen           36.7          19.3               193        3450
     6 Adelie  Torgersen           39.3          20.6               190        3650
     7 Adelie  Torgersen           38.9          17.8               181        3625
     8 Adelie  Torgersen           39.2          19.6               195        4675
     9 Adelie  Torgersen           34.1          18.1               193        3475
    10 Adelie  Torgersen           42            20.2               190        4250
    # ℹ 142 more rows
    # ℹ 2 more variables: sex <fct>, year <int>
…
``` r
# option 1: with ::
penguins |>
  dplyr::filter(species == "Adelie")
```

    # A tibble: 152 × 8
       species island    bill_length_mm bill_depth_mm flipper_length_mm body_mass_g
       <fct>   <fct>              <dbl>         <dbl>             <int>       <int>
     1 Adelie  Torgersen           39.1          18.7               181        3750
     2 Adelie  Torgersen           39.5          17.4               186        3800
     3 Adelie  Torgersen           40.3          18                 195        3250
     4 Adelie  Torgersen           NA            NA                  NA          NA
     5 Adelie  Torgersen           36.7          19.3               193        3450
     6 Adelie  Torgersen           39.3          20.6               190        3650
     7 Adelie  Torgersen           38.9          17.8               181        3625
     8 Adelie  Torgersen           39.2          19.6               195        4675
     9 Adelie  Torgersen           34.1          18.1               193        3475
    10 Adelie  Torgersen           42            20.2               190        4250
    # ℹ 142 more rows
    # ℹ 2 more variables: sex <fct>, year <int>

``` r
# option 2: with conflicts_prefer()
conflicts_prefer(dplyr::filter)
```

    [conflicted] Will prefer dplyr::filter over any other package.

``` r
penguins |>
  filter(species == "Adelie")
```

    # A tibble: 152 × 8
       species island    bill_length_mm bill_depth_mm flipper_length_mm body_mass_g
       <fct>   <fct>              <dbl>         <dbl>             <int>       <int>
     1 Adelie  Torgersen           39.1          18.7               181        3750
     2 Adelie  Torgersen           39.5          17.4               186        3800
     3 Adelie  Torgersen           40.3          18                 195        3250
     4 Adelie  Torgersen           NA            NA                  NA          NA
     5 Adelie  Torgersen           36.7          19.3               193        3450
     6 Adelie  Torgersen           39.3          20.6               190        3650
     7 Adelie  Torgersen           38.9          17.8               181        3625
     8 Adelie  Torgersen           39.2          19.6               195        4675
     9 Adelie  Torgersen           34.1          18.1               193        3475
    10 Adelie  Torgersen           42            20.2               190        4250
    # ℹ 142 more rows
    # ℹ 2 more variables: sex <fct>, year <int>
…
``` r
penguins |>
  left_join(
    islands, 
    by = c("island" = "name")
  ) |>
  select(species, island, coordinates)
```

    # A tibble: 344 × 3
       species island    coordinates   
       <fct>   <chr>     <chr>         
     1 Adelie  Torgersen 64°46′S 64°5′W
     2 Adelie  Torgersen 64°46′S 64°5′W
     3 Adelie  Torgersen 64°46′S 64°5′W
     4 Adelie  Torgersen 64°46′S 64°5′W
     5 Adelie  Torgersen 64°46′S 64°5′W
     6 Adelie  Torgersen 64°46′S 64°5′W
     7 Adelie  Torgersen 64°46′S 64°5′W
     8 Adelie  Torgersen 64°46′S 64°5′W
     9 Adelie  Torgersen 64°46′S 64°5′W
    10 Adelie  Torgersen 64°46′S 64°5′W
    # ℹ 334 more rows
…
``` r
# label penguins as Small, Medium, or Large based on quintile values 
penguins |>
  mutate(
    bm_cat = case_when(
      is.na(body_mass_g) ~ NA,
      body_mass_g < 3550 ~ "Small",
      between(body_mass_g, 3550, 4750) ~ "Medium",
      TRUE ~ "Large"
    )
  )
```

    # A tibble: 344 × 9
       species island    bill_length_mm bill_depth_mm flipper_length_mm body_mass_g
       <fct>   <fct>              <dbl>         <dbl>             <int>       <int>
     1 Adelie  Torgersen           39.1          18.7               181        3750
     2 Adelie  Torgersen           39.5          17.4               186        3800
     3 Adelie  Torgersen           40.3          18                 195        3250
     4 Adelie  Torgersen           NA            NA                  NA          NA
     5 Adelie  Torgersen           36.7          19.3               193        3450
     6 Adelie  Torgersen           39.3          20.6               190        3650
     7 Adelie  Torgersen           38.9          17.8               181        3625
     8 Adelie  Torgersen           39.2          19.6               195        4675
     9 Adelie  Torgersen           34.1          18.1               193        3475
    10 Adelie  Torgersen           42            20.2               190        4250
    # ℹ 334 more rows
    # ℹ 3 more variables: sex <fct>, year <int>, bm_cat <chr>

- Better handling of `NA`s in `if_else()`, `case_when()`, and friends:

``` r
penguins |>
  mutate(
    bm_unit = if_else(!is.na(body_mass_g), paste(body_mass_g, "g"), NA_character_)
  ) |>
  relocate(body_mass_g, bm_unit)
```

    # A tibble: 344 × 9
       body_mass_g bm_unit species island    bill_length_mm bill_depth_mm
             <int> <chr>   <fct>   <fct>              <dbl>         <dbl>
     1        3750 3750 g  Adelie  Torgersen           39.1          18.7
     2        3800 3800 g  Adelie  Torgersen           39.5          17.4
     3        3250 3250 g  Adelie  Torgersen           40.3          18  
     4          NA <NA>    Adelie  Torgersen           NA            NA  
     5        3450 3450 g  Adelie  Torgersen           36.7          19.3
     6        3650 3650 g  Adelie  Torgersen           39.3          20.6
     7        3625 3625 g  Adelie  Torgersen           38.9          17.8
     8        4675 4675 g  Adelie  Torgersen           39.2          19.6
     9        3475 3475 g  Adelie  Torgersen           34.1          18.1
    10        4250 4250 g  Adelie  Torgersen           42            20.2
    # ℹ 334 more rows
    # ℹ 3 more variables: flipper_length_mm <int>, sex <fct>, year <int>
…
